^C:\USERS\DONALD12\DESKTOP\DUKE_INVADERS\DUKE_INVADERS\DEBUG\BACKGROUND.OBJ|C:\USERS\DONALD12\DESKTOP\DUKE_INVADERS\DUKE_INVADERS\DEBUG\BULLET.OBJ|C:\USERS\DONALD12\DESKTOP\DUKE_INVADERS\DUKE_INVADERS\DEBUG\DESTROYED.OBJ|C:\USERS\DONALD12\DESKTOP\DUKE_INVADERS\DUKE_INVADERS\DEBUG\INVADER.OBJ|C:\USERS\DONALD12\DESKTOP\DUKE_INVADERS\DUKE_INVADERS\DEBUG\MAIN.OBJ|C:\USERS\DONALD12\DESKTOP\DUKE_INVADERS\DUKE_INVADERS\DEBUG\PLAYER.OBJ
C:\USERS\DONALD12\DESKTOP\ALLEGRO-4.4.2-MSVC-10.0\LIB\ALLEGRO-4.4.2-MD.LIB
C:\PROGRAM FILES (X86)\MICROSOFT SDKS\WINDOWS\V7.0A\LIB\KERNEL32.LIB
C:\PROGRAM FILES (X86)\MICROSOFT SDKS\WINDOWS\V7.0A\LIB\USER32.LIB
C:\PROGRAM FILES (X86)\MICROSOFT SDKS\WINDOWS\V7.0A\LIB\GDI32.LIB
C:\PROGRAM FILES (X86)\MICROSOFT SDKS\WINDOWS\V7.0A\LIB\WINSPOOL.LIB
C:\PROGRAM FILES (X86)\MICROSOFT SDKS\WINDOWS\V7.0A\LIB\COMDLG32.LIB
C:\PROGRAM FILES (X86)\MICROSOFT SDKS\WINDOWS\V7.0A\LIB\ADVAPI32.LIB
C:\PROGRAM FILES (X86)\MICROSOFT SDKS\WINDOWS\V7.0A\LIB\SHELL32.LIB
C:\PROGRAM FILES (X86)\MICROSOFT SDKS\WINDOWS\V7.0A\LIB\OLE32.LIB
C:\PROGRAM FILES (X86)\MICROSOFT SDKS\WINDOWS\V7.0A\LIB\OLEAUT32.LIB
C:\PROGRAM FILES (X86)\MICROSOFT SDKS\WINDOWS\V7.0A\LIB\UUID.LIB
C:\PROGRAM FILES (X86)\MICROSOFT SDKS\WINDOWS\V7.0A\LIB\ODBC32.LIB
C:\PROGRAM FILES (X86)\MICROSOFT SDKS\WINDOWS\V7.0A\LIB\ODBCCP32.LIB
C:\USERS\DONALD12\DESKTOP\DUKE_INVADERS\DUKE_INVADERS\DEBUG\BACKGROUND.OBJ
C:\USERS\DONALD12\DESKTOP\DUKE_INVADERS\DUKE_INVADERS\DEBUG\BULLET.OBJ
C:\USERS\DONALD12\DESKTOP\DUKE_INVADERS\DUKE_INVADERS\DEBUG\DESTROYED.OBJ
C:\USERS\DONALD12\DESKTOP\DUKE_INVADERS\DUKE_INVADERS\DEBUG\INVADER.OBJ
C:\USERS\DONALD12\DESKTOP\DUKE_INVADERS\DUKE_INVADERS\DEBUG\MAIN.OBJ
C:\USERS\DONALD12\DESKTOP\DUKE_INVADERS\DUKE_INVADERS\DEBUG\PLAYER.OBJ
C:\WINDOWS\SYSTEM32\TZRES.DLL
C:\USERS\DONALD12\DESKTOP\DUKE_INVADERS\DEBUG\DUKE_INVADERS.ILK
C:\USERS\DONALD12\DESKTOP\DUKE_INVADERS\DEBUG\DUKE_INVADERS.EXE
C:\PROGRAM FILES (X86)\MICROSOFT VISUAL STUDIO 10.0\VC\BIN\1033\LINKUI.DLL
C:\WINDOWS\GLOBALIZATION\SORTING\SORTDEFAULT.NLS
C:\PROGRAM FILES (X86)\MICROSOFT VISUAL STUDIO 10.0\VC\LIB\MSVCRTD.LIB
C:\PROGRAM FILES (X86)\MICROSOFT VISUAL STUDIO 10.0\VC\LIB\OLDNAMES.LIB
C:\PROGRAM FILES (X86)\MICROSOFT VISUAL STUDIO 10.0\VC\LIB\MSVCPRTD.LIB
